#410
3 231 216 225
3 230 222 235
3 100 105 109
3 9 14 20
3 32 21 26
3 41 32 26
3 48 54 62
3 31 35 48
3 42 30 58
3 30 42 20
3 14 30 20
3 28 33 35
3 31 28 35
3 45 47 40
3 47 45 53
3 61 47 53
3 1 2 9
3 2 14 9
3 61 63 47
3 63 56 47
3 144 112 140
3 231 229 216
3 202 172 175
3 169 175 154
3 174 169 150
3 150 169 154
3 185 175 169
3 199 189 179
3 189 199 212
3 200 189 212
3 238 230 235
3 196 199 179
3 196 179 172
3 230 219 222
3 124 126 105
3 126 122 109
3 126 109 105
3 158 182 167
3 201 182 191
3 182 192 167
3 208 194 192
3 213 208 192
3 91 100 89
3 100 91 105
3 79 91 89
3 66 41 38
3 11 22 13
3 22 26 13
3 41 22 38
3 22 41 26
3 21 17 26
3 26 17 13
3 5 1 9
3 34 29 37
3 34 37 43
3 29 27 37
3 37 27 32
3 27 21 32
3 119 114 83
3 119 112 144
3 150 119 144
3 87 112 119
3 83 87 119
3 36 58 30
3 62 52 48
3 52 58 36
3 52 31 48
3 31 52 36
3 19 23 31
3 31 23 28
3 14 4 7
3 4 14 2
3 44 40 47
3 92 80 82
3 193 197 216
3 197 193 183
3 159 174 150
3 159 150 144
3 181 193 198
3 214 193 216
3 193 214 198
3 214 216 229
3 137 138 154
3 138 150 154
3 138 137 114
3 138 114 119
3 150 138 119
3 175 155 154
3 155 175 172
3 155 137 154
3 246 243 238
3 249 246 238
3 221 209 212
3 209 200 212
3 209 187 200
3 207 209 215
3 248 244 251
3 253 248 251
3 235 242 238
3 210 222 219
3 233 230 238
3 230 233 219
3 233 243 239
3 243 233 238
3 233 221 212
3 233 212 219
3 236 221 233
3 239 236 233
3 221 223 209
3 223 215 209
3 244 247 251
3 247 252 251
3 237 244 248
3 234 237 248
3 167 176 162
3 194 176 192
3 176 167 192
3 167 148 158
3 148 167 162
3 148 162 149
3 204 182 201
3 182 204 192
3 204 213 192
3 204 217 213
3 228 220 213
3 213 220 208
3 42 69 38
3 38 69 66
3 69 42 58
3 69 58 83
3 41 50 32
3 50 37 32
3 50 41 66
3 50 66 74
3 11 16 22
3 71 86 87
3 86 71 75
3 71 62 59
3 62 70 52
3 70 62 71
3 87 70 71
3 70 58 52
3 58 70 83
3 83 70 87
3 30 18 36
3 14 18 30
3 15 18 10
3 18 14 7
3 18 7 10
3 88 86 75
3 33 46 35
3 54 46 55
3 46 54 48
3 46 48 35
3 82 90 92
3 112 127 140
3 218 225 216
3 193 171 183
3 180 174 159
3 164 163 140
3 140 163 144
3 144 163 159
3 166 193 181
3 193 166 171
3 166 157 171
3 164 166 181
3 211 198 214
3 174 188 169
3 252 254 251
3 234 241 232
3 241 234 248
3 217 226 213
3 253 250 248
3 248 250 241
3 199 206 212
3 212 206 219
3 135 122 126
3 135 126 148
3 149 135 148
3 190 207 203
3 207 190 209
3 190 187 209
3 158 143 153
3 143 158 148
3 124 143 126
3 126 143 148
3 136 124 115
3 124 136 143
3 136 153 143
3 170 182 158
3 170 158 153
3 79 76 91
3 68 76 67
3 76 68 73
3 114 95 83
3 83 95 69
3 66 85 74
3 11 8 16
3 8 6 16
3 6 12 16
3 12 6 3
3 5 12 3
3 20 12 9
3 9 12 5
3 59 65 71
3 15 24 18
3 24 36 18
3 24 31 36
3 24 19 31
3 19 24 15
3 81 80 92
3 75 77 88
3 33 39 46
3 39 44 46
3 112 103 127
3 86 103 87
3 103 112 87
3 103 116 127
3 116 134 127
3 205 216 197
3 216 205 218
3 104 90 96
3 104 92 90
3 92 104 108
3 108 128 117
3 107 108 117
3 164 178 163
3 178 186 163
3 186 178 195
3 178 164 181
3 178 181 195
3 186 177 163
3 177 159 163
3 229 227 214
3 214 227 224
3 245 241 250
3 245 240 241
3 98 124 105
3 98 105 91
3 124 98 115
3 98 91 76
3 73 98 76
3 98 93 115
3 93 98 73
3 93 64 74
3 64 93 73
3 74 64 50
3 173 187 190
3 161 173 190
3 179 160 172
3 152 141 160
3 156 153 136
3 57 68 67
3 79 72 76
3 72 67 76
3 84 69 95
3 102 84 95
3 84 66 69
3 66 84 85
3 97 93 74
3 97 74 85
3 115 130 136
3 25 16 12
3 25 38 22
3 25 22 16
3 20 25 12
3 42 25 20
3 25 42 38
3 147 127 134
3 147 164 140
3 147 140 127
3 147 134 145
3 164 147 166
3 147 157 166
3 157 147 145
3 108 131 128
3 132 131 104
3 131 108 104
3 94 92 108
3 94 108 107
3 92 94 81
3 81 94 78
3 94 88 77
3 94 77 78
3 101 116 103
3 101 120 116
3 120 101 107
3 101 88 94
3 107 101 94
3 101 86 88
3 86 101 103
3 49 51 43
3 37 49 43
3 49 37 50
3 49 50 64
3 165 179 189
3 179 165 160
3 165 152 160
3 152 142 141
3 137 121 114
3 114 121 95
3 121 102 95
3 168 161 190
3 73 60 64
3 68 60 73
3 60 68 57
3 51 60 57
3 60 51 49
3 64 60 49
3 139 151 136
3 139 136 130
3 118 110 106
3 110 97 106
3 110 93 97
3 93 110 115
3 115 110 130
3 125 132 104
3 125 104 113
3 123 141 142
3 123 102 121
3 141 123 121
3 137 146 121
3 146 141 121
3 146 137 155
3 146 160 141
3 172 146 155
3 146 172 160
3 203 184 190
3 102 99 84
3 99 85 84
3 85 99 97
3 97 99 106
3 118 133 110
3 133 130 110
3 142 129 123
3 102 111 99
3 111 102 123
3 111 123 129
3 47 258 44
3 258 56 55
3 47 56 258
3 55 46 258
3 258 46 44
3 65 255 71
3 255 75 71
3 214 256 211
3 224 256 214
3 251 254 281
3 251 281 253
3 281 280 253
3 254 282 281
3 281 279 280
3 282 279 281
3 282 277 278
3 282 278 279
3 254 277 282
3 96 285 104
3 285 113 104
3 261 174 180
3 261 188 174
3 261 260 188
3 260 261 259
3 259 261 180
3 185 266 175
3 266 202 175
3 269 206 196
3 269 219 206
3 269 210 219
3 268 210 269
3 268 269 202
3 269 172 202
3 269 196 172
3 185 262 266
3 266 267 202
3 262 263 266
3 266 263 267
3 202 267 268
3 268 267 265
3 267 264 265
3 263 264 267
3 242 257 238
3 257 249 238
3 221 270 223
3 270 283 223
3 270 284 283
3 221 236 270
3 284 270 236
3 232 275 226
3 232 241 275
3 241 240 275
3 275 240 276
3 275 276 274
3 226 275 274
3 226 274 213
3 274 228 213
3 274 276 228
3 168 272 273
3 161 168 273
3 168 190 272
3 190 184 272
3 272 184 271
3 271 191 182
3 271 182 170
3 271 170 156
3 272 271 156
3 273 272 156
3 273 136 151
3 273 156 136
3 184 191 271
3 151 161 273
