#285
2.041024835859999876e+05 3.458903750900000334e+06 2.881499999999999950e+00
2.045877677569999942e+05 3.461310828900000080e+06 2.463300000000000267e+00
2.052491479199999885e+05 3.454465211400000378e+06 2.515400000000000080e+00
2.055627372409999953e+05 3.463314847899999470e+06 2.390500000000000291e+00
2.059232690730000031e+05 3.456950930299999192e+06 2.632800000000000029e+00
2.059955584209999943e+05 3.452517238900000229e+06 2.797099999999999920e+00
2.066769841500000039e+05 3.465455522600000724e+06 2.661500000000000199e+00
2.068024534320000093e+05 3.450914115100000054e+06 2.891899999999999693e+00
2.072080995469999907e+05 3.459096715700000525e+06 1.558899999999999952e+00
2.077753231340000057e+05 3.467609910000000149e+06 2.512199999999999989e+00
2.078650318559999869e+05 3.448143767000000924e+06 2.607899999999999885e+00
2.081011655160000082e+05 3.455028697200000286e+06 1.523099999999999898e+00
2.083756971710000071e+05 3.445846951400000602e+06 2.671400000000000219e+00
2.085078050869999861e+05 3.462559529100000858e+06 1.474800000000000111e+00
2.088392161980000092e+05 3.469559496500000358e+06 2.822200000000000042e+00
2.089616248790000100e+05 3.450730119899999350e+06 1.567200000000000149e+00
2.094421824379999889e+05 3.443828341700000688e+06 2.639699999999999935e+00
2.100874200560000027e+05 3.465938881699999794e+06 1.447900000000000187e+00
2.101434502670000074e+05 3.471769877299999818e+06 2.394499999999999851e+00
2.105698202110000129e+05 3.457920443199999630e+06 1.270199999999999996e+00
2.107956092200000130e+05 3.441642722100000829e+06 2.707899999999999974e+00
2.113015029189999914e+05 3.448229632899999619e+06 1.362899999999999778e+00
2.113637483260000008e+05 3.473681472699999809e+06 2.238999999999999879e+00
2.114431204399999988e+05 3.469036772500000894e+06 1.459299999999999820e+00
2.115020798699999868e+05 3.452922585599999875e+06 1.275399999999999867e+00
2.119155139670000062e+05 3.444679344799999148e+06 1.551299999999999901e+00
2.121252543789999909e+05 3.439342302100000903e+06 2.517300000000000093e+00
2.126923004239999864e+05 3.475498896400000900e+06 2.235199999999999854e+00
2.127357308659999981e+05 3.437283179600000381e+06 2.933699999999999974e+00
2.134610529359999928e+05 3.462921289100000635e+06 1.104699999999999793e+00
2.139262369189999881e+05 3.471838892300000414e+06 1.335900000000000087e+00
2.139508800890000130e+05 3.441550723400000483e+06 1.579000000000000181e+00
2.143677858809999889e+05 3.477583706299999729e+06 2.253499999999999837e+00
2.146454113409999991e+05 3.435771126499999315e+06 2.527899999999999814e+00
2.153068424989999912e+05 3.474958820900000632e+06 1.299999999999999822e+00
2.153223005349999876e+05 3.467469411499999464e+06 1.085500000000000131e+00
2.157883264459999918e+05 3.438374435699999332e+06 1.566300000000000026e+00
2.158300351680000022e+05 3.451023264499999583e+06 1.049999999999999822e+00
2.158567199550000078e+05 3.479160377199999988e+06 2.362600000000000033e+00
2.159102776369999920e+05 3.483940404699999839e+06 2.834500000000000242e+00
2.161795802890000050e+05 3.445548914799999446e+06 1.238599999999999923e+00
2.162155101399999985e+05 3.457364730399999768e+06 1.049999999999999822e+00
2.167402982170000032e+05 3.434776257899999619e+06 2.309499999999999886e+00
2.174437778070000059e+05 3.480729232100000605e+06 2.681599999999999984e+00
2.175246252899999963e+05 3.486198605599999428e+06 2.552200000000000024e+00
2.183632233589999960e+05 3.477107628399999812e+06 1.709400000000000031e+00
2.186449283630000136e+05 3.482886236899999902e+06 2.020399999999999974e+00
2.187607063539999945e+05 3.473259993599999696e+06 1.344899999999999984e+00
2.188258790229999868e+05 3.436308360999999568e+06 1.501300000000000079e+00
2.190270659150000138e+05 3.441489560599999502e+06 1.299399999999999888e+00
2.191372539000000106e+05 3.433144080099999905e+06 2.458400000000000141e+00
2.198022735120000143e+05 3.469838276100000367e+06 1.208200000000000163e+00
2.201311399580000143e+05 3.486255314999999478e+06 3.055299999999999905e+00
2.207290905370000110e+05 3.475087396900000051e+06 3.089900000000000091e+00
2.207308647850000125e+05 3.477939536599999294e+06 3.205600000000000005e+00
2.211904020669999882e+05 3.480190811899999157e+06 3.351999999999999869e+00
2.212428557209999999e+05 3.431170358999999240e+06 2.448199999999999932e+00
2.213688249650000071e+05 3.464151977499999106e+06 1.049999999999999822e+00
2.216575438300000096e+05 3.475387112199999392e+06 2.274899999999999700e+00
2.217437913640000043e+05 3.433910018699999899e+06 1.500199999999999978e+00
2.217843002850000048e+05 3.484297070299999788e+06 2.688600000000000101e+00
2.223070513710000087e+05 3.472814953900000080e+06 1.342699999999999783e+00
2.223960159850000055e+05 3.482022371999999508e+06 3.137500000000000178e+00
2.224434895449999894e+05 3.437932077299999073e+06 1.299999999999999822e+00
2.227251747990000003e+05 3.477345229199999943e+06 2.202499999999999680e+00
2.231327969100000046e+05 3.447997562500000000e+06 1.049999999999999822e+00
2.232924223549999879e+05 3.428570860999999568e+06 2.710700000000000109e+00
2.236641111159999855e+05 3.430879292899999768e+06 1.766500000000000181e+00
2.241060651580000122e+05 3.454691897399999201e+06 1.430899999999999839e+00
2.242558118470000045e+05 3.469491970599999651e+06 1.124600000000000044e+00
2.250434353169999958e+05 3.474542820000000298e+06 1.112999999999999989e+00
2.252606394070000097e+05 3.427355820199999958e+06 2.767500000000000071e+00
2.259075522179999971e+05 3.434565047299999744e+06 1.314000000000000057e+00
2.259262431159999978e+05 3.442597213600000367e+06 1.207800000000000207e+00
2.263402480269999942e+05 3.477847562599999830e+06 2.116000000000000103e+00
2.267685817359999928e+05 3.430147059200000018e+06 1.687600000000000211e+00
2.269833722009999910e+05 3.480646720699999481e+06 2.056099999999999817e+00
2.271109829829999944e+05 3.482667770899999887e+06 3.039699999999999847e+00
2.272334922899999947e+05 3.426461632500000298e+06 2.754299999999999748e+00
2.273127133639999956e+05 3.487611652499999851e+06 2.578599999999999781e+00
2.274491230759999889e+05 3.485003229699999094e+06 2.278699999999999726e+00
2.274735401110000093e+05 3.489681809100000188e+06 2.611399999999999721e+00
2.282586669310000143e+05 3.463735730599999428e+06 1.049999999999999822e+00
2.283767086769999878e+05 3.450413578600000590e+06 1.055899999999999839e+00
2.284135769999999902e+05 3.446330199400000274e+06 1.051699999999999857e+00
2.285415810960000090e+05 3.475860760399999097e+06 1.066199999999999815e+00
2.286046698829999950e+05 3.471035522800000384e+06 1.049999999999999822e+00
2.287444028300000064e+05 3.479158988500000909e+06 1.324199999999999822e+00
2.294265767730000080e+05 3.425998129599999636e+06 2.589399999999999924e+00
2.296230052169999981e+05 3.490535205900000408e+06 2.413000000000000256e+00
2.297968604620000115e+05 3.428633949699999765e+06 1.779399999999999871e+00
2.298074239069999894e+05 3.487019595699999481e+06 1.713099999999999845e+00
2.300465213299999887e+05 3.439456576600000262e+06 1.299700000000000077e+00
2.300507543799999985e+05 3.483031598099999130e+06 1.369499999999999940e+00
2.301633492710000137e+05 3.455878093200000003e+06 1.299999999999999822e+00
2.308652297029999900e+05 3.492437539499999955e+06 2.573999999999999844e+00
2.309789206570000097e+05 3.443885237600000575e+06 1.225800000000000001e+00
2.313277951389999944e+05 3.433092313400000334e+06 1.716299999999999937e+00
2.314415557569999946e+05 3.447436107499999925e+06 1.407300000000000217e+00
2.315872246659999946e+05 3.425403593499999493e+06 2.733999999999999986e+00
2.321457608929999988e+05 3.478754317700000480e+06 1.050399999999999778e+00
2.322894249330000021e+05 3.450463347400000319e+06 1.302599999999999980e+00
2.328260874049999984e+05 3.475067214099999517e+06 1.058899999999999952e+00
2.329579490449999867e+05 3.489234516499999911e+06 1.961500000000000021e+00
2.330323681060000090e+05 3.428331672599999234e+06 1.763199999999999878e+00
2.330431996069999877e+05 3.445803857799999416e+06 3.290999999999999925e+00
2.332573594739999971e+05 3.481894330199999735e+06 1.325000000000000178e+00
2.336044421889999940e+05 3.485420630699999630e+06 1.789699999999999847e+00
2.338801701689999900e+05 3.425154360400000587e+06 2.646099999999999675e+00
2.338969720659999875e+05 3.441950633099999279e+06 1.407599999999999962e+00
2.339203576569999859e+05 3.446893646600000560e+06 2.469300000000000050e+00
2.339680875869999873e+05 3.470696392699999735e+06 1.158599999999999852e+00
2.341890316410000087e+05 3.491931342199999839e+06 2.524099999999999788e+00
2.342420609800000093e+05 3.460370759199999273e+06 1.207599999999999785e+00
2.343435467240000144e+05 3.437752889599999413e+06 1.325600000000000112e+00
2.348639885979999963e+05 3.477944419900000095e+06 2.414200000000000124e+00
2.349259286530000099e+05 3.483209969100000337e+06 3.165499999999999758e+00
2.350911734240000078e+05 3.444359954900000244e+06 3.481199999999999850e+00
2.350954719230000046e+05 3.465765535299999639e+06 1.167899999999999938e+00
2.354128462099999888e+05 3.480357630699999630e+06 3.173599999999999977e+00
2.355609152750000067e+05 3.454578550400000066e+06 1.299999999999999822e+00
2.358667974720000057e+05 3.424960627000000328e+06 2.730999999999999872e+00
2.358916351819999982e+05 3.450365622999999672e+06 1.505399999999999849e+00
2.359550065959999920e+05 3.433739282199999318e+06 1.544399999999999995e+00
2.359976802770000068e+05 3.490687811100000516e+06 3.092900000000000205e+00
2.362325522279999859e+05 3.428518698400000110e+06 1.764899999999999913e+00
2.363003578810000035e+05 3.475484338099999353e+06 1.633300000000000196e+00
2.363211901369999978e+05 3.485307129399999976e+06 3.084099999999999842e+00
2.363279658470000140e+05 3.447603914100000635e+06 3.308899999999999952e+00
2.364596888139999937e+05 3.440478338999999687e+06 2.746599999999999930e+00
2.368173815079999913e+05 3.487099646800000221e+06 3.062300000000000022e+00
2.368406890790000034e+05 3.488855266499999911e+06 3.011700000000000266e+00
2.371869859649999999e+05 3.443122199100000784e+06 3.324300000000000033e+00
2.373088623439999938e+05 3.478403180700000376e+06 2.750099999999999767e+00
2.379748887150000082e+05 3.425037257699999958e+06 2.614100000000000090e+00
2.381564157309999864e+05 3.436680093200000003e+06 2.330099999999999838e+00
2.382566622949999874e+05 3.458715551300000399e+06 1.300699999999999967e+00
2.383583667640000058e+05 3.462031419900000095e+06 1.346900000000000208e+00
2.384596450109999860e+05 3.440708950899999589e+06 2.403000000000000025e+00
2.385082111359999981e+05 3.472105144899999723e+06 1.420100000000000140e+00
2.385805490390000050e+05 3.452169927200000733e+06 2.994299999999999962e+00
2.387109124120000051e+05 3.448995534199999645e+06 2.658599999999999852e+00
2.387652288479999988e+05 3.433343280300000682e+06 1.738399999999999945e+00
2.389661118389999901e+05 3.468170162599999458e+06 1.378099999999999881e+00
2.390815056850000110e+05 3.479458036000000313e+06 2.859300000000000175e+00
2.393977686889999895e+05 3.454840622400000691e+06 1.305499999999999883e+00
2.395662494920000026e+05 3.476554338800000027e+06 1.856399999999999828e+00
2.395845934899999993e+05 3.428607009800000116e+06 1.799999999999999822e+00
2.400109290850000107e+05 3.425203479100000113e+06 2.602199999999999847e+00
2.400325164769999974e+05 3.464997157899999991e+06 1.616299999999999848e+00
2.403687811700000020e+05 3.440195445599999279e+06 2.495200000000000085e+00
2.404324719110000005e+05 3.450629215900000185e+06 3.541999999999999815e+00
2.406389092860000092e+05 3.435502092700000852e+06 2.930900000000000283e+00
2.409090237239999988e+05 3.460901998099999502e+06 2.496299999999999741e+00
2.411465047009999980e+05 3.458610518100000918e+06 1.707500000000000018e+00
2.411672307110000111e+05 3.437696513599999249e+06 2.324600000000000222e+00
2.412844047819999978e+05 3.479888538899999112e+06 2.687599999999999767e+00
2.416365944810000074e+05 3.433063147700000554e+06 1.854499999999999815e+00
2.417740414750000054e+05 3.467413607999999076e+06 2.775700000000000056e+00
2.418527470650000032e+05 3.452719990399999544e+06 1.584000000000000075e+00
2.419562218130000110e+05 3.442297521500000730e+06 2.466000000000000192e+00
2.420514031520000135e+05 3.425400244400000200e+06 2.817700000000000315e+00
2.423435516680000001e+05 3.469948938500000164e+06 1.623800000000000132e+00
2.423688199780000141e+05 3.473960756799999624e+06 1.556299999999999795e+00
2.426761935729999968e+05 3.449868816299999133e+06 2.605299999999999727e+00
2.427696358600000094e+05 3.478053668999999762e+06 1.838600000000000012e+00
2.428364109950000129e+05 3.428263933700000867e+06 1.805499999999999883e+00
2.428728820040000137e+05 3.440102092000000179e+06 2.540899999999999714e+00
2.428914855849999876e+05 3.462662271999999881e+06 2.544100000000000250e+00
2.432348586350000114e+05 3.436267621700000018e+06 2.270999999999999908e+00
2.432568215280000004e+05 3.481152917700000107e+06 2.531800000000000050e+00
2.433412075419999892e+05 3.456028850199999288e+06 1.314499999999999780e+00
2.433804972849999904e+05 3.444281290699999779e+06 2.930399999999999672e+00
2.436902953609999968e+05 3.465189875199999660e+06 2.238500000000000156e+00
2.438200955710000126e+05 3.459684017899999395e+06 1.618399999999999839e+00
2.444068679370000027e+05 3.425953788399999961e+06 2.665300000000000225e+00
2.444318164910000050e+05 3.468395337600000203e+06 3.667300000000000004e+00
2.444505955770000000e+05 3.472799974500000477e+06 1.868500000000000050e+00
2.445386676659999939e+05 3.452253680099999532e+06 1.730700000000000127e+00
2.447759804289999884e+05 3.467396006599999964e+06 2.701600000000000001e+00
2.448449479099999880e+05 3.475495167899999768e+06 1.809899999999999842e+00
2.448612973490000004e+05 3.432992542999999598e+06 1.811900000000000066e+00
2.449695914679999987e+05 3.482224097500000149e+06 2.726399999999999935e+00
2.454094944770000002e+05 3.438721908399999142e+06 2.780899999999999928e+00
2.454542989790000138e+05 3.461778280099999160e+06 2.326299999999999812e+00
2.454941114330000128e+05 3.470629398000000045e+06 3.043099999999999916e+00
2.456249345010000106e+05 3.445594479299999774e+06 2.658500000000000085e+00
2.457230262670000084e+05 3.463593371799999848e+06 3.791599999999999859e+00
2.457318030030000082e+05 3.449656154300000519e+06 2.665399999999999991e+00
2.460120132229999872e+05 3.442478411699999124e+06 2.298999999999999932e+00
2.460452536869999894e+05 3.436170147600000724e+06 2.497700000000000031e+00
2.460830210340000049e+05 3.429228483300000429e+06 1.966499999999999915e+00
2.464343465279999946e+05 3.479166299799999222e+06 1.901100000000000012e+00
2.465242480410000135e+05 3.426512011499999091e+06 2.686700000000000088e+00
2.466072667850000144e+05 3.473323536299999803e+06 2.796999999999999709e+00
2.466534070179999981e+05 3.454903690799999982e+06 1.630300000000000082e+00
2.467717577450000099e+05 3.482846016300000250e+06 2.790399999999999991e+00
2.470611916689999925e+05 3.475401840800000355e+06 2.278299999999999770e+00
2.471068740359999938e+05 3.452131080499999225e+06 1.621399999999999952e+00
2.472256751689999946e+05 3.447640121600000188e+06 3.105500000000000149e+00
2.473779354009999952e+05 3.434714862099999562e+06 2.832799999999999763e+00
2.474463553520000132e+05 3.458098848400000483e+06 1.797499999999999876e+00
2.474907453920000116e+05 3.439786878399999812e+06 2.905899999999999928e+00
2.482033671669999894e+05 3.432792114700000733e+06 2.240800000000000125e+00
2.482865921129999915e+05 3.484138184200000018e+06 3.051499999999999879e+00
2.486621769790000108e+05 3.453733479499999434e+06 2.510499999999999954e+00
2.486701162349999940e+05 3.442058123099999502e+06 2.754399999999999959e+00
2.487516852319999889e+05 3.427362001800000668e+06 2.641300000000000203e+00
2.487636290260000096e+05 3.445718661199999973e+06 2.048099999999999810e+00
2.493431733449999883e+05 3.456303990599999204e+06 2.315399999999999903e+00
2.493768706219999876e+05 3.474944406999999657e+06 2.054100000000000037e+00
2.493793008269999991e+05 3.449523244799999520e+06 1.814099999999999824e+00
2.497049190999999992e+05 3.430454876700000837e+06 1.990200000000000191e+00
2.497295171310000005e+05 3.477493019600000232e+06 2.032899999999999707e+00
2.498643795779999928e+05 3.443406077299999073e+06 2.983500000000000263e+00
2.499236702140000125e+05 3.481222746200000867e+06 2.049999999999999822e+00
2.502157324530000042e+05 3.433638463400000706e+06 2.563600000000000101e+00
2.505713531920000096e+05 3.484260772500000894e+06 2.890800000000000036e+00
2.506783832690000127e+05 3.452882137900000438e+06 1.851500000000000146e+00
2.509861752369999886e+05 3.428254197200000286e+06 2.720800000000000107e+00
2.513592927729999938e+05 3.447399026000000536e+06 2.309899999999999842e+00
2.514612447040000116e+05 3.456574993599999696e+06 2.999000000000000110e+00
2.519502656659999921e+05 3.445079068700000644e+06 2.638500000000000068e+00
2.521610745820000011e+05 3.475183384500000626e+06 3.604899999999999771e+00
2.522796799410000094e+05 3.483240907600000501e+06 2.843099999999999739e+00
2.526058744580000057e+05 3.432331876700000837e+06 2.486200000000000188e+00
2.529422302769999951e+05 3.477559229299999774e+06 3.495499999999999829e+00
2.529863230139999941e+05 3.429223826899999753e+06 2.668199999999999683e+00
2.531581018829999957e+05 3.479685503699999303e+06 3.171800000000000175e+00
2.531803232089999947e+05 3.454932766000000760e+06 2.154799999999999827e+00
2.536114361609999905e+05 3.481957381400000304e+06 3.002800000000000136e+00
2.537546859779999941e+05 3.434769388100000098e+06 3.064999999999999947e+00
2.538016606120000069e+05 3.450078871600000188e+06 1.985599999999999810e+00
2.546026227310000104e+05 3.437302924100000411e+06 2.858999999999999986e+00
2.548005611060000083e+05 3.456802966499999166e+06 2.616500000000000270e+00
2.548668189910000074e+05 3.446860652300000191e+06 3.119600000000000151e+00
2.558734841120000056e+05 3.439486008700000122e+06 2.309700000000000308e+00
2.562004168620000128e+05 3.453475075899999589e+06 2.102700000000000014e+00
2.562187085490000027e+05 3.448821798100000247e+06 3.383599999999999941e+00
2.567576120470000023e+05 3.431711777300000191e+06 2.866000000000000103e+00
2.570026419269999897e+05 3.435117386900000274e+06 2.299999999999999822e+00
2.572036880440000095e+05 3.456991199899999425e+06 2.413100000000000023e+00
2.574733417889999982e+05 3.450529880599999800e+06 3.356199999999999850e+00
2.575744475429999875e+05 3.441596319499999285e+06 2.322200000000000042e+00
2.586199535789999936e+05 3.433264226399999112e+06 2.538999999999999702e+00
2.589879443770000071e+05 3.452289890599999577e+06 3.417300000000000004e+00
2.589884584890000115e+05 3.444124086100000888e+06 2.818400000000000016e+00
2.589977558399999980e+05 3.438143937799999490e+06 2.372799999999999798e+00
2.599032596740000008e+05 3.454276031500000507e+06 3.605399999999999938e+00
2.601419392069999885e+05 3.435206535299999639e+06 2.381400000000000183e+00
2.613220882540000021e+05 3.441749127599999309e+06 2.299999999999999822e+00
2.619610982580000127e+05 3.445219245899999514e+06 2.583299999999999930e+00
2.619873416990000114e+05 3.437920055600000545e+06 2.433399999999999785e+00
2.643238989249999868e+05 3.442139906099999323e+06 2.368599999999999817e+00
2.243402512989999959e+05 3.478538306299999356e+06 2.726300000000000168e+00
2.505208230800000019e+05 3.473262017400000244e+06 3.196600000000000108e+00
2.594791481009999989e+05 3.456292331800000742e+06 3.493300000000000072e+00
2.192534327880000055e+05 3.479893038699999452e+06 2.288599999999999746e+00
2.466146046609999903e+05 3.467344001199999824e+06 3.326000000000000068e+00
2.480207912939999951e+05 3.465989259700000286e+06 3.666900000000000048e+00
2.458159406770000060e+05 3.465632826199999079e+06 2.681799999999999962e+00
2.472916321750000061e+05 3.462281672000000253e+06 2.698999999999999844e+00
2.489409880490000069e+05 3.461140852399999276e+06 2.593099999999999739e+00
2.513541987549999903e+05 3.460427783199999481e+06 3.278799999999999937e+00
2.504687471570000052e+05 3.458360105599999428e+06 2.956100000000000172e+00
2.472222585339999932e+05 3.460213919800000265e+06 1.781600000000000072e+00
2.490104546269999992e+05 3.459643513399999589e+06 2.072300000000000253e+00
2.482638930960000143e+05 3.457361864199999720e+06 3.068699999999999761e+00
2.476215724380000029e+05 3.456078385500000790e+06 1.844300000000000050e+00
2.536111252920000115e+05 3.445597092199999839e+06 2.330499999999999794e+00
2.445312489059999934e+05 3.437040973899999633e+06 2.660899999999999821e+00
2.444096832780000113e+05 3.439893040599999949e+06 2.336999999999999744e+00
2.415104159269999946e+05 3.439108779400000349e+06 2.299999999999999822e+00
2.529861380699999863e+05 3.430695191600000486e+06 2.360000000000000320e+00
2.548784999980000139e+05 3.432905474600000307e+06 2.383399999999999963e+00
2.550347508720000042e+05 3.430267345200000331e+06 2.522100000000000009e+00
2.671006686849999824e+05 3.442103386099999771e+06 2.833400000000000141e+00
2.696180191249999916e+05 3.442388578700000420e+06 2.826100000000000279e+00
2.665451764850000036e+05 3.439108707699999213e+06 2.890200000000000102e+00
2.644444205320000183e+05 3.437540099700000137e+06 2.737400000000000055e+00
2.638367831529999967e+05 3.439607827400000766e+06 2.752899999999999903e+00
2.661111191669999971e+05 3.440891251800000668e+06 2.890900000000000247e+00
2.534700695330000017e+05 3.443142057700000703e+06 3.326900000000000190e+00
2.558257859020000033e+05 3.445191228900000453e+06 3.553300000000000125e+00
2.326838597899999877e+05 3.493633840099999681e+06 2.916100000000000136e+00
